…
  # tidy data frame and add indicator name as variable
  indicator <- indicator %>%
    gather(year, value, -1, convert = TRUE) %>%
    mutate(value = as.numeric(value),
           variable = ifelse(!is.na(inc_name), inc_name, inc_fullname)) %>%
    select(country, year, variable, value)
}

# use default name
(import_gapminder("data/indicator hiv estimated prevalence% 15-49 (1).xlsx"))
```

    ## # A tibble: 9,075 x 4
    ##    country                year variable                              value
    ##    <chr>                 <int> <chr>                                 <dbl>
    ##  1 Abkhazia               1979 Estimated HIV Prevalence% - (Ages … NA     
    ##  2 Afghanistan            1979 Estimated HIV Prevalence% - (Ages … NA     
    ##  3 Akrotiri and Dhekelia  1979 Estimated HIV Prevalence% - (Ages … NA     
    ##  4 Albania                1979 Estimated HIV Prevalence% - (Ages … NA     
    ##  5 Algeria                1979 Estimated HIV Prevalence% - (Ages … NA     
    ##  6 American Samoa         1979 Estimated HIV Prevalence% - (Ages … NA     
    ##  7 Andorra                1979 Estimated HIV Prevalence% - (Ages … NA     
    ##  8 Angola                 1979 Estimated HIV Prevalence% - (Ages …  0.0265
    ##  9 Anguilla               1979 Estimated HIV Prevalence% - (Ages … NA     
    ## 10 Antigua and Barbuda    1979 Estimated HIV Prevalence% - (Ages … NA     
    ## # ... with 9,065 more rows

``` r
# use custom label
(import_gapminder("data/indicator hiv estimated prevalence% 15-49 (1).xlsx",
                  inc_name = "hiv_15_49"))
```

    ## # A tibble: 9,075 x 4
    ##    country                year variable    value
    ##    <chr>                 <int> <chr>       <dbl>
    ##  1 Abkhazia               1979 hiv_15_49 NA     
    ##  2 Afghanistan            1979 hiv_15_49 NA     
    ##  3 Akrotiri and Dhekelia  1979 hiv_15_49 NA     
    ##  4 Albania                1979 hiv_15_49 NA     
    ##  5 Algeria                1979 hiv_15_49 NA     
    ##  6 American Samoa         1979 hiv_15_49 NA     
    ##  7 Andorra                1979 hiv_15_49 NA     
    ##  8 Angola                 1979 hiv_15_49  0.0265
    ##  9 Anguilla               1979 hiv_15_49 NA     
    ## 10 Antigua and Barbuda    1979 hiv_15_49 NA     
    ## # ... with 9,065 more rows
…
