Day 8 - Multivariate data visualization
…
To generate the final week-in-month variable, we need to combine a few lubridate functions to get exactly what we want:

(flights <- flights %>%
  # generate variables for week in the year (1-54) and the day in the year (1-366)
  mutate(week = week(date),
         yday = yday(date)) %>%
  # normalize to draw calendar correctly - wday should represent the number of days from the Sunday of the week containing January 1st, then adjust based on that
  group_by(year) %>%
  mutate(yday = yday + wday(date)[1] - 2,
         week = floor(yday / 7)) %>%
  group_by(year, month) %>%
  mutate(week_month = week - min(week) + 1))

## Source: local data frame [7,671 x 9]
## Groups: year, month [252]
## 
##          date value  year  yday       days month weekday  week week_month
##        <date> <int> <dbl> <dbl>     <date> <ord>   <ord> <dbl>      <dbl>
## 1  1988-01-01 12681  1988     5 2016-01-01   Jan     Fri     0          1
## 2  1988-01-02 13264  1988     6 2016-01-02   Jan     Sat     0          1
## 3  1988-01-03 13953  1988     7 2016-01-03   Jan     Sun     1          2
## 4  1988-01-04 13921  1988     8 2016-01-04   Jan     Mon     1          2
## 5  1988-01-05 13932  1988     9 2016-01-05   Jan    Tues     1          2
## 6  1988-01-06 13157  1988    10 2016-01-06   Jan     Wed     1          2
## 7  1988-01-07 11159  1988    11 2016-01-07   Jan   Thurs     1          2
## 8  1988-01-08 11631  1988    12 2016-01-08   Jan     Fri     1          2
## 9  1988-01-09 12045  1988    13 2016-01-09   Jan     Sat     1          2
## 10 1988-01-10 13160  1988    14 2016-01-10   Jan     Sun     2          3
## # ... with 7,661 more rows
…
