Text visualization
…
Topic modeling

Wordclouds

library(wordcloud)

# get tweets
rt <- search_tweets(
  q = "#rstats",
  n = 3000,
  include_rts = FALSE
)
rt

## # A tibble: 2,705 x 42
##    status_id  created_at          user_id  screen_name text         source
##    <chr>      <dttm>              <chr>    <chr>       <chr>        <chr> 
##  1 998960493 2018-05-22 16:15:16 1445929 Rbloggers   July 5th &a r-blo
##  2 998959904 2018-05-22 16:12:55 3967465 grssnbchr   Willst Du w Tweet
##  3 998959845 2018-05-22 16:12:41 89191817 BigDataIns "Big | Data Paper
##  4 998959486 2018-05-22 16:11:16 21136238 rihender    Will exchan Twitt
##  5 998959214 2018-05-22 16:10:11 3044686 thinkR_fr   #RStats  C Hoots
##  6 998957195 2018-05-22 16:02:09 2335858 CRANberrie CRAN update CRANb
##  7 998956655 2018-05-22 16:00:01 2953443 RLangTip    List of R p Tweet
##  8 998955208 2018-05-22 15:54:15 2859870 tripartio   Why multico Twitt
##  9 998955141 2018-05-22 15:54:00 3909197 theothered Maana! Aco Twitt
## 10 998954783 2018-05-22 15:52:34 8974458 lobrowR     "I have bee Twitt
## # ... with 2,695 more rows, and 36 more variables:
## #   reply_to_status_id <chr>, reply_to_user_id <chr>,
## #   reply_to_screen_name <chr>, is_quote <lgl>, is_retweet <lgl>,
## #   favorite_count <int>, retweet_count <int>, hashtags <list>,
## #   symbols <list>, urls_url <list>, urls_t.co <list>,
## #   urls_expanded_url <list>, media_url <list>, media_t.co <list>,
## #   media_expanded_url <list>, media_type <list>, ext_media_url <list>,
## #   ext_media_t.co <list>, ext_media_expanded_url <list>,
## #   ext_media_type <lgl>, mentions_user_id <list>,
…
Network analysis with text

Use text features to identify edges between nodes in a network

How every #GameOfThrones episode has been discussed on Twitter

Sentiment analysis

I am happy

Dictionaries

get_sentiments("bing")

## # A tibble: 6,788 x 2
##    word        sentiment
##    <chr>       <chr>    
##  1 2-faced     negative 
##  2 2-faces     negative 
##  3 a+          positive 
##  4 abnormal    negative 
##  5 abolish     negative 
##  6 abominable  negative 
##  7 abominably  negative 
##  8 abominate   negative 
##  9 abomination negative 
## 10 abort       negative 
## # ... with 6,778 more rows

Dictionaries

get_sentiments("afinn")

## # A tibble: 2,476 x 2
##    word       score
##    <chr>      <int>
##  1 abandon       -2
##  2 abandoned     -2
##  3 abandons      -2
##  4 abducted      -2
##  5 abduction     -2
##  6 abductions    -2
##  7 abhor         -3
##  8 abhorred      -3
##  9 abhorrent     -3
## 10 abhors        -3
## # ... with 2,466 more rows

Dictionaries

get_sentiments("nrc")

## # A tibble: 13,901 x 2
##    word        sentiment
##    <chr>       <chr>    
##  1 abacus      trust    
##  2 abandon     fear     
##  3 abandon     negative 
##  4 abandon     sadness  
##  5 abandoned   anger    
##  6 abandoned   fear     
##  7 abandoned   negative 
##  8 abandoned   sadness  
##  9 abandonment anger    
## 10 abandonment fear     
## # ... with 13,891 more rows
…
